<?xml version="1.0" encoding="UTF-8"?>
<svg width="842.24" height="842.24" version="1.1" viewBox="0 0 842.24 842.24" xml:space="preserve"
  xmlns="http://www.w3.org/2000/svg" xmlns:cc="http://creativecommons.org/ns#"
  xmlns:dc="http://purl.org/dc/elements/1.1/" xmlns:rdf="http://www.w3.org/1999/02/22-rdf-syntax-ns#">
  <style>
    path {
      fill: #116466;
    }
  </style>
  <metadata>
    <rdf:RDF>
      <cc:Work rdf:about="">
        <dc:format>image/svg+xml</dc:format>
        <dc:type rdf:resource="http://purl.org/dc/dcmitype/StillImage" />
        <dc:title />
      </cc:Work>
    </rdf:RDF>
  </metadata>
  <defs>
    <clipPath id="clipPath851">
      <path d="m0 2e3h2e3v-2e3h-2e3z" />
    </clipPath>
  </defs>
  <g transform="matrix(1.3333 0 0 -1.3333 -912.21 1700.2)">
    <g clip-path="url(#clipPath851)">
      <path d="m1149.3 973.23h-94.511v-28.508h94.511z" />
      <g transform="translate(1224.9 1003.5)">
        <path
          d="m0 0 44.196-44.197-269.05-269.05-175.7 175.7h153.75v32.617h-64.553c-8.391 0-16.14 1.541-23.243 4.622-7.107 3.082-13.226 7.32-18.363 12.713-5.136 5.393-9.161 11.854-12.071 19.39-2.913 7.533-4.366 15.667-4.366 24.399 0 8.9 1.453 17.034 4.366 24.398 2.91 7.36 6.935 13.696 12.071 19.005 5.137 5.305 11.256 9.458 18.363 12.456 7.103 2.994 14.852 4.494 23.243 4.494h85.008v-154.09h32.36v154.09h224.23l-255.1 255.1-315.84-315.84 44.197-44.196h46.788l-44.196 44.196 269.05 269.05 175.7-175.7h-262.2c-13.014 0-25.041-2.183-36.084-6.549-11.044-4.366-20.634-10.53-28.765-18.491-8.134-7.962-14.47-17.593-19.004-28.893-4.539-11.3-6.806-23.8-6.806-37.496 0-13.528 2.267-26.112 6.806-37.753 3.632-9.329 8.44-17.619 14.383-24.912h-99.131l255.1-255.1 315.84 315.84-44.197 44.197z"/>
      </g>
    </g>
  </g>
</svg>